…
You will see that a warning pops up. Lets use the `problems()` call as suggested to learn more:

```r
problems()
```

```
# A tibble: 50,320 × 5
     row   col expected   actual        file 
   <int> <int> <chr>      <chr>         <chr>
 1     1     1 an integer 2022000000021 ""   
 2     1     1 an integer 2022000000351 ""   
 3     1     1 an integer 2022000000691 ""   
 4     1     1 an integer 2022000001021 ""   
 5     1     1 an integer 2022000001361 ""   
 6     1     1 an integer 2022000001691 ""   
 7     1     1 an integer 2022000002031 ""   
 8     1     1 an integer 2022000002371 ""   
 9     1     1 an integer 2022000002701 ""   
10     1     1 an integer 2022000003041 ""   
# ℹ 50,310 more rows
# ℹ Use `print(n = ...)` to see more rows
```
…
